{
    "id": "heating",
    "name": "Heating Service",
    "capabilities": [
        "indoorTemperature", "targetIndoorTemperature", "fanSpeed", "fanSpeedLevel", "horizontalAirflowDirection", "horizontalAirflowDirectionLevel"
    ],
    "definitions": {
        "settable": {
            "targetIndoorTemperature": {
                "settable": true,
                "type": "float",
                "validation": {
                    "decimals": 1,
                    "min": {
                        "value": 0,
                        "settable": false
                    },
                    "max": {
                        "value": 40,
                        "settable": false
                    }
                }
            },
            "fanSpeed": {
                "type": "string",
                "value": "manual",
                "settable": true,
                "validation": {
                    "enum": { "value": ["manual", "auto"], "settable": false}
                }
            },
            "fanSpeedLevel": {
                "type": "integer",
                "value": 2,
                "settable": true,
                "validation": {
                    "min": {
                        "value": 1,
                        "settable": false
                    },
                    "max": {
                        "value": 5,
                        "settable": false
                    },
                    "optional": true
                }
            },
            "horizontalAirflowDirection": {
                "type": "string",
                "value": "auto",
                "settable": true,
                "validation": {
                    "enum": {"value": ["auto", "swing", "fixed"], "settable": false}
                }
            },
            "horizontalAirflowDirectionLevel": {
                "type": "integer",
                "value": null,
                "settable": true,
                "validation": {
                    "min": {
                        "value": 1,
                        "settable": false
                    },
                    "max": {
                        "value": 5,
                        "settable": false
                    },
                    "optional": true
                }
            }
        },
        "gettable": {
            "indoorTemperature": {
                "type": "float",
                "validation": {
                    "decimals": 1
                }
            }
        }
    }
}